#
# A fatal error has been detected by the Java Runtime Environment:
#
#  EXCEPTION_ACCESS_VIOLATION (0xc0000005) at pc=0x6d0b71e0, pid=4184, tid=1124
#
# JRE version: 6.0_29-b11
# Java VM: Java HotSpot(TM) Client VM (20.4-b02 mixed mode, sharing windows-x86 )
# Problematic frame:
# C  [awt.dll+0xb71e0]
#
# If you would like to submit a bug report, please visit:
#   http://java.sun.com/webapps/bugreport/crash.jsp
# The crash happened outside the Java Virtual Machine in native code.
# See problematic frame for where to report the bug.
#

---------------  T H R E A D  ---------------

Current thread (0x03e40000):  JavaThread "AWT-Windows" daemon [_thread_in_native, id=1124, stack(0x04380000,0x043d0000)]

siginfo: ExceptionCode=0xc0000005, reading address 0x00000000

Registers:
EAX=0x043cf7b0, EBX=0x03e57450, ECX=0x000000e4, EDX=0x000000c0
ESP=0x043cf798, EBP=0x043cf908, ESI=0x00000000, EDI=0x000000c0
EIP=0x6d0b71e0, EFLAGS=0x00010216

Top of Stack: (sp=0x043cf798)
0x043cf798:   043cf7b0 00001000 00000000 03e48368
0x043cf7a8:   03e48300 0000003c 00000271 6d0af6cc
0x043cf7b8:   00000000 01a6ae90 03e48e88 03e48368
0x043cf7c8:   6d0b3e43 00000000 00009825 03e40128
0x043cf7d8:   00000001 00000556 043cf86c 7725629b
0x043cf7e8:   00000006 00000000 7720c5fe 03e40128
0x043cf7f8:   019d6a68 6d06dbf0 00000000 0000982a
0x043cf808:   00000000 00000000 00000000 00000000 

Instructions: (pc=0x6d0b71e0)
0x6d0b71c0:   d8 56 8b b3 10 a0 00 00 1b c0 57 25 00 f0 ff ff
0x6d0b71d0:   05 00 20 00 00 50 c1 e2 05 8d 44 24 14 50 8b fa
0x6d0b71e0:   8b 16 57 c1 e1 05 51 56 ff 52 2c 85 c0 0f 8c 93
0x6d0b71f0:   00 00 00 8b 53 04 8b cf 8b 7c 24 10 8b c1 c1 e9 


Register to memory mapping:

EAX=0x043cf7b0 is pointing into the stack for thread: 0x03e40000
EBX=0x03e57450 is an unknown value
ECX=0x000000e4 is an unknown value
EDX=0x000000c0 is an unknown value
ESP=0x043cf798 is pointing into the stack for thread: 0x03e40000
EBP=0x043cf908 is pointing into the stack for thread: 0x03e40000
ESI=0x00000000 is an unknown value
EDI=0x000000c0 is an unknown value


Stack: [0x04380000,0x043d0000],  sp=0x043cf798,  free space=317k
Native frames: (J=compiled Java code, j=interpreted, Vv=VM code, C=native code)
C  [awt.dll+0xb71e0]  D3DVertexCacher::Render+0x50
C  [awt.dll+0x9ce6a]  Java_sun_awt_windows_WToolkit_loadSystemColors+0x94a
C  [USER32.dll+0x1c4e7]  gapfnScSendMessage+0x1cf
C  [USER32.dll+0x1c5e7]  gapfnScSendMessage+0x2cf
C  [USER32.dll+0x14f0e]  GetScrollBarInfo+0xfd
C  [USER32.dll+0x14f7d]  GetScrollBarInfo+0x16c
C  [ntdll.dll+0x46fce]  KiUserCallbackDispatcher+0x2e
C  [USER32.dll+0x164a1]  PeekMessageW+0x157

Java frames: (J=compiled Java code, j=interpreted, Vv=VM code)
j  sun.awt.windows.WToolkit.eventLoop()V+0
j  sun.awt.windows.WToolkit.run()V+52
j  java.lang.Thread.run()V+11
v  ~StubRoutines::call_stub

---------------  P R O C E S S  ---------------

Java Threads: ( => current thread )
  0x03e8f800 JavaThread "TimerQueue" daemon [_thread_blocked, id=4796, stack(0x07510000,0x07560000)]
  0x077b6800 JavaThread "D3D Screen Updater" daemon [_thread_blocked, id=1668, stack(0x07de0000,0x07e30000)]
  0x01369c00 JavaThread "DestroyJavaVM" [_thread_blocked, id=5144, stack(0x001e0000,0x00230000)]
  0x03e40800 JavaThread "AWT-EventQueue-0" [_thread_in_native, id=4292, stack(0x04410000,0x04460000)]
=>0x03e40000 JavaThread "AWT-Windows" daemon [_thread_in_native, id=1124, stack(0x04380000,0x043d0000)]
  0x03e3d800 JavaThread "AWT-Shutdown" [_thread_blocked, id=5924, stack(0x04330000,0x04380000)]
  0x03e3d400 JavaThread "Java2D Disposer" daemon [_thread_blocked, id=5664, stack(0x042e0000,0x04330000)]
  0x01a2e800 JavaThread "Low Memory Detector" daemon [_thread_blocked, id=4836, stack(0x03d50000,0x03da0000)]
  0x01a29c00 JavaThread "C1 CompilerThread0" daemon [_thread_blocked, id=4716, stack(0x03d00000,0x03d50000)]
  0x01a28c00 JavaThread "Attach Listener" daemon [_thread_blocked, id=4112, stack(0x03cb0000,0x03d00000)]
  0x01a27c00 JavaThread "Signal Dispatcher" daemon [_thread_blocked, id=4124, stack(0x03c60000,0x03cb0000)]
  0x01a1d400 JavaThread "Finalizer" daemon [_thread_blocked, id=4952, stack(0x03c10000,0x03c60000)]
  0x01a1bc00 JavaThread "Reference Handler" daemon [_thread_blocked, id=5692, stack(0x03bc0000,0x03c10000)]

Other Threads:
  0x019e0400 VMThread [stack: 0x01310000,0x01360000] [id=1980]
  0x01a40400 WatcherThread [stack: 0x03da0000,0x03df0000] [id=2708]

VM state:not at safepoint (normal execution)

VM Mutex/Monitor currently owned by a thread: None

Heap
 def new generation   total 6080K, used 3936K [0x23a40000, 0x240d0000, 0x28f90000)
  eden space 5440K,  70% used [0x23a40000, 0x23dfec60, 0x23f90000)
  from space 640K,  15% used [0x24030000, 0x24049578, 0x240d0000)
  to   space 640K,   0% used [0x23f90000, 0x23f90000, 0x24030000)
 tenured generation   total 13416K, used 10064K [0x28f90000, 0x29caa000, 0x33a40000)
   the space 13416K,  75% used [0x28f90000, 0x29964160, 0x29964200, 0x29caa000)
 compacting perm gen  total 12288K, used 2263K [0x33a40000, 0x34640000, 0x37a40000)
   the space 12288K,  18% used [0x33a40000, 0x33c75f38, 0x33c76000, 0x34640000)
    ro space 10240K,  51% used [0x37a40000, 0x37f6d0b8, 0x37f6d200, 0x38440000)
    rw space 12288K,  54% used [0x38440000, 0x38ad9570, 0x38ad9600, 0x39040000)

Code Cache  [0x01ab0000, 0x01cb8000, 0x03ab0000)
 total_blobs=1282 nmethods=1065 adapters=152 free_code_cache=31434880 largest_free_block=256

Dynamic libraries:
0x00400000 - 0x00424000 	C:\Program Files\Java\jre6\bin\javaw.exe
0x77630000 - 0x7776c000 	C:\Windows\SYSTEM32\ntdll.dll
0x76ef0000 - 0x76fc4000 	C:\Windows\system32\kernel32.dll
0x75840000 - 0x7588a000 	C:\Windows\system32\KERNELBASE.dll
0x761d0000 - 0x76270000 	C:\Windows\system32\ADVAPI32.dll
0x75f70000 - 0x7601c000 	C:\Windows\system32\msvcrt.dll
0x77770000 - 0x77789000 	C:\Windows\SYSTEM32\sechost.dll
0x77020000 - 0x770c1000 	C:\Windows\system32\RPCRT4.dll
0x771f0000 - 0x772b9000 	C:\Windows\system32\USER32.dll
0x75f20000 - 0x75f6e000 	C:\Windows\system32\GDI32.dll
0x77850000 - 0x7785a000 	C:\Windows\system32\LPK.dll
0x77470000 - 0x7750d000 	C:\Windows\system32\USP10.dll
0x777a0000 - 0x777bf000 	C:\Windows\system32\IMM32.DLL
0x772c0000 - 0x7738c000 	C:\Windows\system32\MSCTF.dll
0x7c340000 - 0x7c396000 	C:\Program Files\Java\jre6\bin\msvcr71.dll
0x6d7f0000 - 0x6da9f000 	C:\Program Files\Java\jre6\bin\client\jvm.dll
0x00160000 - 0x00192000 	C:\Windows\system32\WINMM.dll
0x756f0000 - 0x7573c000 	C:\Windows\system32\apphelp.dll
0x6d7a0000 - 0x6d7ac000 	C:\Program Files\Java\jre6\bin\verify.dll
0x6d320000 - 0x6d33f000 	C:\Program Files\Java\jre6\bin\java.dll
0x6d7e0000 - 0x6d7ef000 	C:\Program Files\Java\jre6\bin\zip.dll
0x61380000 - 0x61409000 	C:\Users\Paulina\AppData\Local\Temp\sqlite-3.7.2-sqlitejdbc.dll
0x6d000000 - 0x6d14c000 	C:\Program Files\Java\jre6\bin\awt.dll
0x73270000 - 0x732c1000 	C:\Windows\system32\WINSPOOL.DRV
0x76070000 - 0x761cc000 	C:\Windows\system32\ole32.dll
0x74820000 - 0x749be000 	C:\Windows\WinSxS\x86_microsoft.windows.common-controls_6595b64144ccf1df_6.0.7601.17514_none_41e6975e2bd6f2b2\COMCTL32.dll
0x77390000 - 0x773e7000 	C:\Windows\system32\SHLWAPI.dll
0x74260000 - 0x74273000 	C:\Windows\system32\DWMAPI.DLL
0x74590000 - 0x745d0000 	C:\Windows\system32\uxtheme.dll
0x75740000 - 0x7574c000 	C:\Windows\system32\CRYPTBASE.dll
0x762a0000 - 0x76eea000 	C:\Windows\system32\shell32.dll
0x6d230000 - 0x6d27f000 	C:\Program Files\Java\jre6\bin\fontmanager.dll
0x6d600000 - 0x6d613000 	C:\Program Files\Java\jre6\bin\net.dll
0x76020000 - 0x76055000 	C:\Windows\system32\WS2_32.dll
0x77790000 - 0x77796000 	C:\Windows\system32\NSI.dll
0x75220000 - 0x7525c000 	C:\Windows\system32\mswsock.dll
0x75210000 - 0x75216000 	C:\Windows\System32\wship6.dll
0x6d620000 - 0x6d629000 	C:\Program Files\Java\jre6\bin\nio.dll
0x62790000 - 0x62953000 	C:\Windows\system32\d3d9.dll
0x74cb0000 - 0x74cb9000 	C:\Windows\system32\VERSION.dll
0x68220000 - 0x68226000 	C:\Windows\system32\d3d8thk.dll
0x66610000 - 0x666c8000 	C:\Windows\system32\aticfx32.dll
0x67ea0000 - 0x67eab000 	C:\Windows\system32\atiu9pag.dll
0x5fbc0000 - 0x5ffde000 	C:\Windows\system32\atiumdag.dll
0x04c50000 - 0x05039000 	C:\Windows\system32\atiumdva.dll
0x75ac0000 - 0x75b4f000 	C:\Windows\system32\OLEAUT32.DLL
0x76060000 - 0x76065000 	C:\Windows\system32\PSAPI.DLL

VM Arguments:
jvm_args: -Dfile.encoding=Cp1250 
java_command: fait.bb.bf.graphics.Main
Launcher Type: SUN_STANDARD

Environment Variables:
PATH=C:/Program Files/Java/jre6/bin/client;C:/Program Files/Java/jre6/bin;C:\Program Files\NVIDIA Corporation\PhysX\Common;C:\Windows\system32;C:\Windows;C:\Windows\System32\Wbem;C:\Windows\System32\WindowsPowerShell\v1.0\;C:\Program Files\ATI Technologies\ATI.ACE\Core-Static;C:\Program Files\Subversion\bin;C:\Program Files\Common Files\GTK\2.0\bin;C:\Program Files\TortoiseSVN\bin;C:\Program Files\WinMerge;C:\Program Files\Microsoft SQL Server\80\Tools\Binn\;C:\Program Files\Microsoft SQL Server\90\DTS\Binn\;C:\Program Files\Microsoft SQL Server\90\Tools\binn\;C:\Program Files\Microsoft SQL Server\90\Tools\Binn\VSShell\Common7\IDE\;C:\Program Files\Microsoft Visual Studio 8\Common7\IDE\PrivateAssemblies\;C:\Program Files\Smart Projects\IsoBuster
USERNAME=Paulina
OS=Windows_NT
PROCESSOR_IDENTIFIER=x86 Family 16 Model 6 Stepping 3, AuthenticAMD



---------------  S Y S T E M  ---------------

OS: Windows 7 Build 7601 Service Pack 1

CPU:total 2 (2 cores per cpu, 1 threads per core) family 16 model 6 stepping 3, cmov, cx8, fxsr, mmx, sse, sse2, sse3, popcnt, mmxext, 3dnow, 3dnowext, lzcnt, sse4a

Memory: 4k page, physical 3144936k(804016k free), swap 6288116k(2581420k free)

vm_info: Java HotSpot(TM) Client VM (20.4-b02) for windows-x86 JRE (1.6.0_29-b11), built on Oct  3 2011 01:01:08 by "java_re" with MS VC++ 7.1 (VS2003)

time: Fri Dec 14 13:58:31 2012
elapsed time: 316 seconds

